
 Infer results 
room type: [[[[0]
   [0]
   [0]
   ...
   [0]
   [0]
   [0]]

  [[0]
   [0]
   [0]
   ...
   [0]
   [0]
   [0]]

  [[0]
   [0]
   [0]
   ...
   [0]
   [0]
   [0]]

  ...

  [[0]
   [0]
   [0]
   ...
   [0]
   [0]
   [0]]

  [[0]
   [0]
   [0]
   ...
   [0]
   [0]
   [0]]

  [[0]
   [0]
   [0]
   ...
   [0]
   [0]
   [0]]]]
room boundary: [[[[0]
   [0]
   [0]
   ...
   [0]
   [0]
   [0]]

  [[0]
   [0]
   [0]
   ...
   [0]
   [0]
   [0]]

  [[0]
   [0]
   [0]
   ...
   [0]
   [0]
   [0]]

  ...

  [[0]
   [0]
   [0]
   ...
   [0]
   [0]
   [0]]

  [[0]
   [0]
   [0]
   ...
   [0]
   [0]
   [0]]

  [[0]
   [0]
   [0]
   ...
   [0]
   [0]
   [0]]]]
 AFTER; 
 room type: [[0 0 0 ... 0 0 0]
 [0 0 0 ... 0 0 0]
 [0 0 0 ... 0 0 0]
 ...
 [0 0 0 ... 0 0 0]
 [0 0 0 ... 0 0 0]
 [0 0 0 ... 0 0 0]]
room boundary: [[0 0 0 ... 0 0 0]
 [0 0 0 ... 0 0 0]
 [0 0 0 ... 0 0 0]
 ...
 [0 0 0 ... 0 0 0]
 [0 0 0 ... 0 0 0]
 [0 0 0 ... 0 0 0]]

Merged floorplan
before: [[0 0 0 ... 0 0 0]
 [0 0 0 ... 0 0 0]
 [0 0 0 ... 0 0 0]
 ...
 [0 0 0 ... 0 0 0]
 [0 0 0 ... 0 0 0]
 [0 0 0 ... 0 0 0]]
I= 0: [[0. 0. 0.]
 [0. 0. 0.]
 [0. 0. 0.]
 ...
 [0. 0. 0.]
 [0. 0. 0.]
 [0. 0. 0.]]+RGB: [255, 255, 255]
I= 1: [[0. 0. 0.]
 [0. 0. 0.]
 [0. 0. 0.]
 ...
 [0. 0. 0.]
 [0. 0. 0.]
 [0. 0. 0.]]+RGB: [192, 192, 224]
I= 2: [[0. 0. 0.]
 [0. 0. 0.]
 [0. 0. 0.]
 ...
 [0. 0. 0.]
 [0. 0. 0.]
 [0. 0. 0.]]+RGB: [192, 255, 255]
I= 3: [[0. 0. 0.]
 [0. 0. 0.]
 [0. 0. 0.]
 ...
 [0. 0. 0.]
 [0. 0. 0.]
 [0. 0. 0.]]+RGB: [224, 255, 192]
I= 4: [[0. 0. 0.]
 [0. 0. 0.]
 [0. 0. 0.]
 ...
 [0. 0. 0.]
 [0. 0. 0.]
 [0. 0. 0.]]+RGB: [255, 224, 128]
I= 5: [[0. 0. 0.]
 [0. 0. 0.]
 [0. 0. 0.]
 ...
 [0. 0. 0.]
 [0. 0. 0.]
 [0. 0. 0.]]+RGB: [255, 160, 96]
I= 6: [[0. 0. 0.]
 [0. 0. 0.]
 [0. 0. 0.]
 ...
 [0. 0. 0.]
 [0. 0. 0.]
 [0. 0. 0.]]+RGB: [255, 224, 224]
I= 7: [[0. 0. 0.]
 [0. 0. 0.]
 [0. 0. 0.]
 [0. 0. 0.]
 [0. 0. 0.]
 [0. 0. 0.]
 [0. 0. 0.]
 [0. 0. 0.]
 [0. 0. 0.]
 [0. 0. 0.]
 [0. 0. 0.]
 [0. 0. 0.]
 [0. 0. 0.]
 [0. 0. 0.]
 [0. 0. 0.]
 [0. 0. 0.]
 [0. 0. 0.]
 [0. 0. 0.]
 [0. 0. 0.]
 [0. 0. 0.]
 [0. 0. 0.]
 [0. 0. 0.]
 [0. 0. 0.]
 [0. 0. 0.]
 [0. 0. 0.]]+RGB: [255, 255, 255]
I= 8: [[0. 0. 0.]
 [0. 0. 0.]
 [0. 0. 0.]
 ...
 [0. 0. 0.]
 [0. 0. 0.]
 [0. 0. 0.]]+RGB: [255, 255, 255]
I= 9: [[0. 0. 0.]
 [0. 0. 0.]
 [0. 0. 0.]
 ...
 [0. 0. 0.]
 [0. 0. 0.]
 [0. 0. 0.]]+RGB: [255, 60, 128]
I= 10: [[0. 0. 0.]
 [0. 0. 0.]
 [0. 0. 0.]
 ...
 [0. 0. 0.]
 [0. 0. 0.]
 [0. 0. 0.]]+RGB: [0, 0, 0]
RGB: [[[255. 255. 255.]
  [255. 255. 255.]
  [255. 255. 255.]
  ...
  [255. 255. 255.]
  [255. 255. 255.]
  [255. 255. 255.]]

 [[255. 255. 255.]
  [255. 255. 255.]
  [255. 255. 255.]
  ...
  [255. 255. 255.]
  [255. 255. 255.]
  [255. 255. 255.]]

 [[255. 255. 255.]
  [255. 255. 255.]
  [255. 255. 255.]
  ...
  [255. 255. 255.]
  [255. 255. 255.]
  [255. 255. 255.]]

 ...

 [[255. 255. 255.]
  [255. 255. 255.]
  [255. 255. 255.]
  ...
  [255. 255. 255.]
  [255. 255. 255.]
  [255. 255. 255.]]

 [[255. 255. 255.]
  [255. 255. 255.]
  [255. 255. 255.]
  ...
  [255. 255. 255.]
  [255. 255. 255.]
  [255. 255. 255.]]

 [[255. 255. 255.]
  [255. 255. 255.]
  [255. 255. 255.]
  ...
  [255. 255. 255.]
  [255. 255. 255.]
  [255. 255. 255.]]]